1.2x	^\s*\* *@deprecated +([sS]ince +)?1\.2\d\b
1.30	^\s*\* *@deprecated +([sS]ince +)?1\.30\b
1.31	^\s*\* *@deprecated +([sS]ince +)?1\.31\b
1.32	^\s*\* *@deprecated +([sS]ince +)?1\.32\b
1.33	^\s*\* *@deprecated +([sS]ince +)?1\.33\b
1.34	^\s*\* *@deprecated +([sS]ince +)?1\.34\b
1.35	^\s*\* *@deprecated +([sS]ince +)?1\.35\b
1.36	^\s*\* *@deprecated +([sS]ince +)?1\.36\b
1.37	^\s*\* *@deprecated +([sS]ince +)?1\.37\b
1.38	^\s*\* *@deprecated +([sS]ince +)?1\.38\b
1.39	^\s*\* *@deprecated +([sS]ince +)?1\.39\b
1.40	^\s*\* *@deprecated +([sS]ince +)?1\.40\b
1.41	^\s*\* *@deprecated +([sS]ince +)?1\.41\b
1.42	^\s*\* *@deprecated +([sS]ince +)?1\.42\b
